"Account Number","Customer Last Name","Customer First Name","Customer Middle Name","Customer Name Suffix","Customer SSN","Customer Address Line 1","Customer Address Line 2","Customer City","Customer State","Customer ZIP","Customer ECOA","Date Opened","Current Balance","Account Status","Payment Rating","Compliance Condition","Date of Account Info","Amount Past Due","Date of First Delinquency","Original Creditor Name","Highest Credit Amt","LastPayDate","Close Date","Cosigner Last Name","Cosigner First Name","Cosigner Middle Name","Cosigner Address Line 1","Cosigner Address Line 2","Cosigner City","Cosigner State","Cosigner ZIP","Cosigner ECOA","Cosigner SSN","BirthDate",
"1507021","Lee","Mike","","","432145674","4321 Plaza","Crystal Tower","Ventura","CA","93001","1","04/27/2011","4601.90","DA","G","XB","05/21/2020","4601.90","12/20/2010","Prudential Overall Supply","4601.90","","","","","","","","","","","","","",
"1507022","test","test","","","678543234","add1","add2","city","TX","29019","1","04/27/2011","4601.90","93","G","XH","05/21/2020","4601.90","12/20/2010","Prudential Overall Supply","4601.90","","","","","","","","","","","","","01/17/2001",
"1507023","test","test","","","432143456","4321 Plaza","Crystal Tower","Ventura","CA","93001","1","04/27/2011","4601.90","93","G","","05/21/2020","4601.90","12/20/2010","Prudential Overall Supply","4601.90","","","","","","","","","","","","","",
"1506071","rrr","rr","","","123456765","3530 Temple Ave # A&B","","Pomona","CA","91768","1","04/22/2011","3621.64","62","G","","05/21/2020","3621.64","03/10/2011","Prudential Overall Supply","3585.78","","","","","","","","","","","","","",
"1506072","","","","","","","","","","","1","","3621.64","62","G","","05/21/2020","3621.64","","","3585.78","","","","","","","","","","","","","",
"1506073","ttt","ttt","","","654321234","3530 Temple Ave # A&B","","Pomona","CA","91768","1","04/22/2011","3621.64","62","G","","05/21/2020","3621.64","03/10/2011","Prudential Overall Supply","3585.78","","","","","","","","","","","","","",
"1507011","aa","aa","","","543212345","18900 E Industrial Parkway","","New Caney","TX","77357","1","04/27/2011","1974.20","62","G","","05/21/2020","1974.20","01/19/2011","Spark Energy, L.P. (Electricity)","1827.96","","","","","","","","","","","","","",
"1506061","lnm","fnm","","","876545678","1419 San Felipe Dr","","Boulder City","NV","89005","1","04/22/2011","4205.54","93","G","XH","05/21/2020","4205.54","04/05/2011","Prudential Overall Supply","4163.90","","","","","","","","","","","","","03/21/1980",
"1507031","ttt","test","","","123432123","P.O. Box 1205","","ww","TA","321345","1","04/27/2011","4550.56","62","G","XB","05/21/2020","4550.56","02/01/2011","Prudential Overall Supply","4550.56","","","","","","","","","","","","","10/28/1981",
"1507071","yy","yy","y","","654321234","1641 N. Carpenter Rd.","","Modesto","CA","95351","1","04/27/2011","55.00","62","G","XB","05/21/2020","55.00","02/02/2011","Prudential Overall Supply","55.00","","","","","","","","","","","","","01/30/2001",
"1507072","fff","ff","","","543212345","1641 N. Carpenter Rd.","","Modesto","CA","95351","1","04/27/2011","55.00","62","G","","05/21/2020","55.00","02/02/2011","Prudential Overall Supply","55.00","","","","","","","","","","","","","01/05/2001",
"1507073","11","11","","","432112345","1641 N. Carpenter Rd.","","Modesto","CA","95351","1","04/27/2011","55.00","62","G","","05/21/2020","55.00","02/02/2011","Prudential Overall Supply","55.00","","","","","","","","","","","","","01/03/2001",
"1507012","lnm","fnm","","","654321234","18900 E Industrial Parkway","","New Caney","TX","77357","1","04/27/2011","1974.20","62","G","XB","05/21/2020","1974.20","01/19/2011","Spark Energy, L.P. (Electricity)","1827.96","","","","","","","","","","","","","01/31/2001",
"1507013","ff","ff","","","123456787","103 Plaza","S.V. Road","El Paso","TX","765433","1","04/27/2011","1974.20","93","G","","05/21/2020","1974.20","01/19/2011","Spark Energy, L.P. (Electricity)","1827.96","","","","","","","","","","","","","06/10/1980",
"1507033","lnm","fnm","","","543212345","P.O. Box 1205","","Corona","CA","92878","1","04/27/2011","4550.56","93","G","XB","05/21/2020","4550.56","02/01/2011","Prudential Overall Supply","4550.56","","","","","","","","","","","","","06/10/1980",
"1507034","yy","yy","yy","","543212345","P.O. Box 1205","","Corona","CA","92878","1","04/27/2011","4550.56","DA","G","XB","05/21/2020","4550.56","02/01/2011","Prudential Overall Supply","4550.56","","","","","","","","","","","","","12/18/1996",
"1507041","ff","ff","","","543212345","180 N. Benson Ave Ste E","","Upland","CA","91786","1","04/27/2011","1288.92","93","G","XB","05/21/2020","1288.92","04/12/2011","Prudential Overall Supply","1288.92","","","","","","","","","","","","","06/12/1990",
"1507053","ggggggg","gg","","","543212345","3120 E Plaza Blvd.","","National City","CA","92950","1","04/27/2011","2624.93","93","G","XB","05/21/2020","2624.93","04/21/2011","Prudential Overall Supply","2624.93","","","","","","","","","","","","","10/27/1970",
"1507042","g","gg","","","543212345","180 N. Benson Ave Ste E","","Upland","CA","91786","1","04/27/2011","1288.92","93","G","XH","05/21/2020","1288.92","04/12/2011","Prudential Overall Supply","1288.92","","","","","","","","","","","","","01/15/1960",
"1507015","aa","aa","","","543234567","trg","","Test","CA","204512","1","04/27/2011","1974.20","62","G","XB","05/21/2020","1974.20","01/19/2011","Spark Energy, L.P. (Electricity)","1827.96","","","","","","","","","","","","","10/31/1979",
"1506074","ggg","gg","","","543456545","3530 Temple Ave # A&B","","Pomona","CA","91768","1","04/22/2011","3621.64","62","G","XB","05/21/2020","3621.64","03/10/2011","Prudential Overall Supply","3585.78","","","","","","","","","","","","","02/03/1970",
"1507044","yy","yy","","","456123789","180 N. Benson Ave Ste E","","Upland","CA","91786","1","04/27/2011","1288.92","62","G","XB","05/21/2020","1288.92","04/12/2011","Prudential Overall Supply","1288.92","","","","","","","","","","","","","06/18/1980",
"1507045","pp","rr","","","432123456","180 N. Benson Ave Ste E","","Upland","CA","91786","1","04/27/2011","1288.92","DA","G","","05/21/2020","1288.92","04/12/2011","Prudential Overall Supply","1288.92","","","","","","","","","","","","","02/18/1970",
"1507047","fff","ff","","","565656565","180 N. Benson Ave Ste E","","Upland","CA","91786","1","04/27/2011","1288.92","62","G","XB","05/21/2020","1288.92","04/12/2011","Prudential Overall Supply","1288.92","","","","","","","","","","","","","01/13/1970",
"1507049","","","","","","","","","","","1","04/27/2011","1288.92","62","G","","05/21/2020","1288.92","04/12/2011","","1288.92","","","","","","","","","","","","","",
"1490271","1","1","1","","111111111","2705 Windy Hills Ave","","Las Vegas","NV","89031","1","03/16/2011","1668.50","62","G","","05/21/2020","1668.50","02/18/2011","Prudential Overall Supply","1651.98","","","","","","","","","","","","","",
"1497561","tttttttttt","t","tttttttt","","123456789","9851 Alburtis Avenue","","Santa Fe Springs","CA","90670","1","04/04/2011","3259.02","93","G","XB","05/21/2020","3259.02","03/10/2011","Prudential Overall Supply","2632.52","","","","","","","","","","","","","01/02/2001",
"113061","Industrial","MDW","","","123-45-6789","11 Railroad Avenue","","Pittsburg","CA","12547-889","1","05/24/1996","0.00","62","G","","05/21/2020","0.00","12/22/1995","Prudential Overall Supply","2693.17","04/22/1997","04/22/1997","","","","","","","","","","","02/22/1901",
"113062","","","","","","","","","","","1","05/24/1996","0.00","62","G","","05/21/2020","0.00","12/22/1995","","2693.17","04/22/1997","04/22/1997","","","","","","","","","","","",
"113063","","","","","","","","","","","1","05/24/1996","0.00","62","G","","05/21/2020","0.00","12/22/1995","","2693.17","04/22/1997","04/22/1997","","","","","","","","","","","",
"113064","Industrial","MDW","","","123-45-6987","1101 Railroad Avenue","","Pittsburg","CA","94565","1","05/24/1996","0.00","62","G","","05/21/2020","0.00","12/22/1995","Prudential Overall Supply","2693.17","04/22/1997","04/22/1997","","","","","","","","","","","",
"113065","Industrial","MDW","","","545-87-8965","1101 Railroad Avenue","","Pittsburg","CA","945655874","1","05/24/1996","0.00","62","G","","05/21/2020","0.00","12/22/1995","Prudential Overall Supply","2693.17","04/22/1997","04/22/1997","","","","","","","","","","","02/09/1901",
"113066","Service","Gaviota","Maintenance","","454-44-5445","2261 N. Ventura Avenue","","Ventura123","CA","930012323","1","05/24/1996","0.00","62","G","","05/21/2020","0.00","12/22/1995","Prudential Overall Supply","2693.17","04/22/1997","04/22/1997","","","","","","","","","","","",
"113067","","","","","","2261 N. Ventura Avenue","","Ventura123","CA","12345-678","1","05/24/1996","0.00","62","G","","05/21/2020","0.00","12/22/1995","Prudential Overall Supply","2693.17","04/22/1997","04/22/1997","","","","","","","","","","","",
"126481","Industrial","MDW","","","455-55-5555","1101 Railroad Avenue","","Pittsburg","CA","94565","1","09/26/1996","0.00","62","G","","05/21/2020","0.00","05/01/1996","Prudential Overall Supply","7651.66","","","","","","","","","","","","","",
