"Description","Qty","Price","TrxPeriod","IsCommissionable",
"Additional Carrier Fee","1.0000","210.00","201010","False",
"Additional Lien Fee","1.0000","68.00","201010","False",
"Additional Postage Fee","1.0000","30.00","201010","False",
"Additional Title Research Fee","1.0000","65.00","201010","False",
"Amended Notice","24.0000","232.25","201008","False",
"Amended Notice","27.0000","240.50","201009","False",
"Amended Notice","31.0000","262.00","201010","False",
"Amended Notice","29.0000","241.50","201011","False",
"Amended Notice","40.0000","328.75","201012","False",
"Amended Notice","34.0000","287.75","201101","False",
"Amended Notice","26.0000","218.50","201102","False",
"Amended Notice","49.0000","404.25","201103","False",
"Amended Notice","28.0000","227.50","201104","False",
"Amended Notice","4.0000","32.00","201701","False",
"AZ Mechanics Lien POS","1.0000","15.00","201010","False",
"AZ Mechanics Lien POS","1.0000","15.00","201104","False",
"AZ Postage & Handling","163.0000","326.00","201008","False",
"AZ Postage & Handling","287.0000","574.00","201009","False",
"AZ Postage & Handling","421.0000","842.00","201010","False",
"AZ Postage & Handling","211.0000","422.00","201011","False",
"AZ Postage & Handling","259.0000","518.00","201012","False",
"AZ Postage & Handling","336.0000","672.00","201101","False",
"AZ Postage & Handling","382.0000","764.00","201102","False",
"AZ Postage & Handling","366.0000","732.00","201103","False",
"AZ Postage & Handling","265.0000","530.00","201104","False",
"AZ Postage & Handling","16.0000","32.80","201701","False",
"Bond Claim Release","1.0000","50.00","201102","False",
"Cancelled Order","8.0000","96.00","201008","True",
"Cancelled Order","20.0000","240.00","201009","True",
"Cancelled Order","12.0000","144.00","201010","True",
"Cancelled Order","13.0000","156.00","201011","True",
"Cancelled Order","8.0000","96.00","201012","True",
"Cancelled Order","6.0000","72.00","201101","True",
"Cancelled Order","11.0000","132.00","201102","True",
"Cancelled Order","7.0000","84.00","201103","True",
"Cancelled Order","5.0000","60.00","201104","True",
"Cancelled Order","35.0000","245.00","201701","True",
"Carrier Fee","1.0000","210.00","201010","False",
"Customer Send","1.0000","1.50","201008","False",
"Customer Send","1.0000","1.50","201010","False",
"Greencard","174.0000","478.50","201008","False",
"Greencard","457.0000","1256.75","201009","False",
"Greencard","605.0000","1663.75","201010","False",
"Greencard","463.0000","1273.25","201011","False",
"Greencard","438.0000","1204.50","201012","False",
"Greencard","486.0000","1336.50","201101","False",
"Greencard","349.0000","959.75","201102","False",
"Greencard","602.0000","1655.50","201103","False",
"Greencard","351.0000","965.25","201104","False",
"Incomplete Job Info","95.0000","26.00","201008","False",
"Incomplete Job Info","137.0000","84.00","201009","False",
"Incomplete Job Info","124.0000","74.00","201010","False",
"Incomplete Job Info","113.0000","68.00","201011","False",
"Incomplete Job Info","69.0000","60.00","201012","False",
"Incomplete Job Info","69.0000","48.00","201101","False",
"Incomplete Job Info","59.0000","38.00","201102","False",
"Incomplete Job Info","84.0000","78.00","201103","False",
"Incomplete Job Info","54.0000","30.00","201104","False",
"Job Verification Only","4.0000","104.50","201008","True",
"Job Verification Only","1.0000","14.50","201009","True",
"Job Verification Only","3.0000","69.00","201010","True",
"Job Verification Only","3.0000","100.50","201101","True",
"Job Verification Only","2.0000","29.00","201102","True",
"Job Verification Only","3.0000","51.00","201103","True",
"Lien Fee","1.0000","16.00","201010","False",
"Mechanics Lien","2.0000","300.00","201010","True",
"Notice Sent As Is","91.0000","1137.50","201008","True",
"Notice Sent As Is","103.0000","1287.50","201009","True",
"Notice Sent As Is","102.0000","1275.00","201010","True",
"Notice Sent As Is","82.0000","1025.00","201011","True",
"Notice Sent As Is","58.0000","725.00","201012","True",
"Notice Sent As Is","54.0000","680.00","201101","True",
"Notice Sent As Is","22.0000","277.50","201102","True",
"Notice Sent As Is","40.0000","500.00","201103","True",
"Notice Sent As Is","29.0000","362.50","201104","True",
"Notice Verified As Is","1.0000","1.00","201101","True",
"Other Legal Parties","83.0000","332.00","201008","False",
"Other Legal Parties","150.0000","600.00","201009","False",
"Other Legal Parties","205.0000","820.00","201010","False",
"Other Legal Parties","131.0000","524.00","201011","False",
"Other Legal Parties","139.0000","556.00","201012","False",
"Other Legal Parties","168.0000","672.00","201101","False",
"Other Legal Parties","157.0000","628.00","201102","False",
"Other Legal Parties","210.0000","840.00","201103","False",
"Other Legal Parties","110.0000","440.00","201104","False",
"Other Legal Parties","29.0000","145.00","201701","False",
"POD Requested","2.0000","20.00","201010","False",
"POD Requested","7.0000","70.00","201104","False",
"Postage & Handling","1145.0000","4866.25","201008","False",
"Postage & Handling","1510.0000","6417.50","201009","False",
"Postage & Handling","1540.0000","6545.00","201010","False",
"Postage & Handling","1176.0000","4998.00","201011","False",
"Postage & Handling","932.0000","3961.00","201012","False",
"Postage & Handling","903.0000","3837.75","201101","False",
"Postage & Handling","779.0000","3310.75","201102","False",
"Postage & Handling","1217.0000","5172.25","201103","False",
"Postage & Handling","720.0000","3060.00","201104","False",
"Postage & Handling","571.0000","2712.25","201701","False",
"Postage & Handling TX","2.0000","8.50","201010","False",
"Postage Fee","1.0000","30.00","201010","False",
"Postage Fee","1.0000","11.00","201104","False",
"Preliminary Notice","368.0000","6945.75","201008","True",
"Preliminary Notice","510.0000","8979.00","201009","True",
"Preliminary Notice","542.0000","9694.00","201010","True",
"Preliminary Notice","367.0000","6615.00","201011","True",
"Preliminary Notice","307.0000","5461.00","201012","True",
"Preliminary Notice","325.0000","5676.50","201101","True",
"Preliminary Notice","324.0000","5803.50","201102","True",
"Preliminary Notice","424.0000","7390.50","201103","True",
"Preliminary Notice","270.0000","4743.50","201104","True",
"Resent Notice","5.0000","20.00","201008","False",
"Resent Notice","7.0000","28.00","201009","False",
"Resent Notice","12.0000","48.00","201010","False",
"Resent Notice","38.0000","152.00","201011","False",
"Resent Notice","8.0000","32.00","201012","False",
"Resent Notice","4.0000","16.00","201101","False",
"Resent Notice","19.0000","76.00","201102","False",
"Resent Notice","11.0000","44.00","201103","False",
"Resent Notice","6.0000","24.00","201104","False",
"Resent Notice","9.0000","45.00","201701","False",
"Rush Order","2.0000","50.00","201008","False",
"Rush Order","3.0000","75.00","201009","False",
"Rush Order","2.0000","50.00","201010","False",
"Rush Order","1.0000","25.00","201102","False",
"Rush Order","1.0000","25.00","201103","False",
"Title Research Fee","1.0000","65.00","201010","False",
"TX Public Notice","1.0000","20.00","201010","True",
"TX Public Notice","8.0000","160.00","201701","True",
"Verified Sent","2.0000","3.00","201010","True",
"Verified Sent","150.0000","750.00","201701","True",
"Verify Job And Send Notice","117.0000","1872.00","201701","True",
"Verify Job Data Only","32.0000","416.00","201701","True",
