"ClientCode","ReferalDate","DebtorName","Location","DebtAccountId","CollectionStatus","TotAsgAmt","AccountNo","CloseDate",
"POS714","4/1/2011","Salon 1602","16","149726","ACT","1625.85","54248-00","",
"POS714","4/1/2011","Above All Auto Transport","16","149727","ACT","2716.52","10056-10","",
"POS714","4/1/2011","Valu Plumbing","10","149728","SML","1410.94","68323-00","",
"POS714","4/1/2011","Torres Auto Repair","9","149729","LEG","3385.59","65275-25","",
"POS714","4/4/2011","First Empire Auto Body","4","149752","SIF","1248.92","75129-50","4/25/2011",
"POS714","4/4/2011","Autonotion","10","149753","SML","3486.53","05064-00","",
"POS714","4/4/2011","Huntington Beach Choppers","10","149754","SML","1623.41","29676-00","",
"POS714","4/4/2011","Tri City Automotive","10","149755","SML","3174.84","65756-00","",
"POS714","4/4/2011","Media Plus West","10","149756","SML","2632.52","39675-40","",
"POS714","4/4/2011","Opti Switch","5","149757","ACT","2570.59","45012-00","",
"POS714","4/4/2011","Cafe Mangu","16","149758","ACT","1536.35","10012-50","",
"POS714","4/4/2011","Pro Body Shop","9","149759","LEG","1540.20","80045-09","4/11/2011",
"POS714","4/4/2011","Chico's Bakery","5","149760","DSP","1947.44","12544-74","",
"POS714","4/4/2011","Auto Clinic Repair","10","149761","SML","3230.74","80000-20","",
"POS714","4/4/2011","Pizza Picazzo Esplanade","10","149762","SML","2373.14","48743-52","",
"POS714","4/4/2011","AD Industries","9","149763","LEG","4527.60","00132-00","",
"POS714","4/4/2011","The Mustang Shop","9","149765","LEG","866.60","64278-25","4/11/2011",
