"ClientCode","AccountNo","DebtorName","ContactName","AddressLine1","AddressLine2","City","State","PostalCode","PhoneNo","PhoneNoExt","Cell","Fax","Email","ContactName_2","AddressLine1_2","AddressLine2_2","City_2","State_2","PostalCode_2","PhoneNo_2","PhoneNoExt_2","Cell_2","Fax_2","Email_2","ContactName_3","AddressLine1_3","AddressLine2_3","City_3","State_3","PostalCode_3","PhoneNo_3","PhoneNoExt_3","Cell_3","Fax_3","Email_3","ReferalDate","LastServiceDate","LastPaymentDate","TotAsgAmt","ClientAgentCode","TaxId","AccountNote","BranchNum","Location","CollectionStatus","CommRate","BatchId","BatchDebtAccountId","SubmittedByUserId","IsEstAudit","IsIntlAcct","IsJudgmentAcct","IsRapidRebate","IsSecondary","IsSkip","totcollfeeamt","AddrNote_2","AddrNote_3","ServiceType","ExchangeRate","BranchNum","FixedCollRateCode","ClientGroupNum",
"CFS800","70469063-3-8289","General Automatic Transmission","","10502 Fountain Lake Dr #1031","","Stafford","TX","774770000","3618843208","","","","","","","","","","","","","","","","","","","","","","","","","","","3/11/2020","3/6/2013","1/2/2014","3939.59","","","C1-10032789494486991","","","","","9074","2114","1788","N","N","N","N","N","N","0.00","","","test","1.000000","","","0",
"CFS800","27948778-88-7775","Terrazas Furniture Co","","1037 Bluebird Ln Apt A","","Fort Stockton","TX","79735","4323368536","","","","terrazfurniture@gmail.com","","","","","","","","","","","","","","","","","","","","","","","3/11/2020","4/16/2013","10/8/2013","41.39","","","C1-10400514718630001","","","","","9074","2115","1788","N","N","N","N","N","N","0.00","","","test","1.000000","","","0",
"CFS800","22832511-25-8908","Main Place Cleaners","","2106 N Main St","","Cleburne","TX","760335010","8179194775","","","","","","","","","","","","","","","","","","","","","","","","","","","3/11/2020","4/18/2012","10/14/2013","96.08","","","C1-10443720002866266","","","","","9074","2116","1788","N","N","N","N","N","N","0.00","","","test","1.000000","","","0",
"CFS800","58114820-4-1414","The Goldmine- Inc","","500 N Jackson Rd Ste 423 El Centro Mall","","Pharr","TX","785770000","9566183711","","","","AZTECSUN22@AOL.COM","","","","","","","","","","","","","","","","","","","","","","","3/11/2020","8/20/2009","7/27/2012","33.03","","","C1-10032789490043661","","","","","9074","2117","1788","N","N","N","N","N","N","0.00","","","test","1.000000","","","0",
"CFS800","85471005-91-188","Ruiz- Jose","","1121 N 4th Ave Apt 7hm","","Edinburg","TX","785413567","9568782268","","","","joseluisruiz52@gmail.com","","","","","","","","","","","","","","","","","","","","","","","3/11/2020","4/15/2009","8/10/2012","60.46","","","C1-10032789418792969","","","","","9074","2118","1788","N","N","N","N","N","N","0.00","","","test","1.000000","","","0",
"CFS800","47714116-30-4518","LULU Enterprises dba LULU Liquor","","8631 BEECHNUT  ST #A","","Houston","TX","770366733","7132705347","","","","pljimon@yahoo.com","","","","","","","","","","","","","","","","","","","","","","","3/11/2020","12/21/2009","12/13/2012","24.70","","","C1-1008901017127161094100","","","","","9074","2119","1788","N","N","N","N","N","N","0.00","","","test","1.000000","","","0",
"CFS800","62239365-12-6749","My Diamond Shoppe Too","","1301 Custer Rd Ste 300","","Plano","TX","750757499","9728818306","","","","stump2252@msn.com","","","","","","","","","","","","","","","","","","","","","","","3/11/2020","8/20/2012","6/11/2013","44.01","","","C1-10443720003439700","","","","","9074","2120","1788","N","N","N","N","N","N","0.00","","","test","1.000000","","","0",
"CFS800","67096262-46-8880","SERVOS","","412 15TH   ST RR","","Galveston","TX","775500000","2816357614","","","","2NSF2","","","","","","","","","","","","","","","","","","","","","","","3/11/2020","6/24/2010","6/21/2013","17.69","","","C1-1008901004410123760100","","","","","9074","2121","1788","N","N","N","N","N","N","0.00","","","test","1.000000","","","0",
"CFS800","78263287-1-1799","Kenny K N. Enterprise dba Irving Beer & Wine","","2215 N STORY RD","","Irving","TX","750620000","2145664399","","","","rush2dude@yahoo.com","","","","","","","","","","","","","","","","","","","","","","","3/11/2020","5/4/2009","12/30/2011","1399.63","","","C1-10443720003550434","","","","","9074","2122","1788","N","N","N","N","N","N","0.00","","","test","1.000000","","","0",
"CFS800","2302283-99-9856","Meat Planet Inc","","1606 Ahrens St","","Houston","TX","770173802","2819487601","","","","isela-elizondo@hotmail.com","","","","","","","","","","","","","","","","","","","","","","","3/11/2020","11/18/2011","12/6/2013","724.68","","","C1-1008901023814349020103","","","","","9074","2123","1788","N","N","N","N","N","N","0.00","","","test","1.000000","","","0",
"CFS800","81583928-11-2192","Pescados Y Mariscos La Estrella","","2217 E Main St","","Uvalde","TX","788014946","8304212672","","","","jserrato_11@hotmail.com","","","","","","","","","","","","","","","","","","","","","","","3/11/2020","3/12/2012","12/3/2013","3370.02","","","C1-10032789412539920","","","","","9074","2124","1788","N","N","N","N","N","N","0.00","","","test","1.000000","","","0",
"CFS800","52023647-72-5310","Oakridge Restaurants LLC","","1377 Kingwood Dr","","Kingwood","TX","773393037","2813582637","","","","nsf1sraziuddin@comcast.net","","","","","","","","","","","","","","","","","","","","","","","3/11/2020","1/15/2013","1/14/2014","965.29","","","C1-1008901008536061475100","","","","","9074","2125","1788","N","N","N","N","N","N","0.00","","","test","1.000000","","","0",
"CFS800","24928118-93-9778","Peggy's Boutique","","5133 Kostoryz Rd Ste C","","Corpus Christi","TX","784151964","3619441082","","","","peggyvega37@yahoo.com","","","","","","","","","","","","","","","","","","","","","","","3/11/2020","2/11/2013","1/2/2014","1045.09","","","C1-10032789498743285","","","","","9074","2126","1788","N","N","N","N","N","N","0.00","","","test","1.000000","","","0",
"CFS800","65152955-32-2717","Rocky's","","425 E SINTON ST","","Sinton","TX","783870000","3613642177","","","","kgerla@yahoo.com","","","","","","","","","","","","","","","","","","","","","","","3/11/2020","6/3/2009","1/14/2014","355.58","","","C1-10032789404231355","","","","","9074","2127","1788","N","N","N","N","N","N","0.00","","","test","1.000000","","","0",
"CFS800","30511027-41-3590","Rush Enterprises","","176 Highway 59 S","","Edna","TX","779574668","8306265200","","","","","","","","","","","","","","","","","","","","","","","","","","","3/11/2020","7/17/2013","12/17/2013","196.53","","","C1-10032789418177010","","","","","9074","2128","1788","N","N","N","N","N","N","0.00","","","test","1.000000","","","0",
"CFS800","30511027-41-2597","Rush Enterprises","","176 Highway 59 S","","Edna","TX","779574668","8306265200","","","","","","","","","","","","","","","","","","","","","","","","","","","3/11/2020","7/17/2013","12/10/2013","31.38","","","C1-10032789402786566","","","","","9074","2129","1788","N","N","N","N","N","N","0.00","","","test","1.000000","","","0",
"CFS800","30511027-41-4932","Rush Enterprises","","176 Highway 59 S","","Edna","TX","779574668","8306265200","","","","","","","","","","","","","","","","","","","","","","","","","","","3/11/2020","7/17/2013","12/17/2013","19.15","","","C1-10032789489424755","","","","","9074","2130","1788","N","N","N","N","N","N","0.00","","","test","1.000000","","","0",
"CFS800","30511027-41-8627","Rush Enterprises","","176 Highway 59 S","","Edna","TX","779574668","8306265200","","","","","","","","","","","","","","","","","","","","","","","","","","","3/11/2020","7/17/2013","12/10/2013","18.48","","","C1-10032789467593169","","","","","9074","2131","1788","N","N","N","N","N","N","0.00","","","test","1.000000","","","0",
"CFS800","30511027-41-2867","Rush Enterprises","","176 Highway 59 S","","Edna","TX","779574668","8306265200","","","","","","","","","","","","","","","","","","","","","","","","","","","3/11/2020","7/17/2013","12/10/2013","14.45","","","C1-10443720004792145","","","","","9074","2132","1788","N","N","N","N","N","N","0.00","","","test","1.000000","","","0",
"CFS800","30511027-41-2564","Rush Enterprises","","176 Highway 59 S","","Edna","TX","779574668","8306265200","","","","","","","","","","","","","","","","","","","","","","","","","","","3/11/2020","7/17/2013","12/7/2013","14.05","","","C1-10443720006462577","","","","","9074","2133","1788","N","N","N","N","N","N","0.00","","","test","1.000000","","","0",
"CFS800","30511027-41-9761","Rush Enterprises","","176 Highway 59 S","","Edna","TX","779574668","8306265200","","","","","","","","","","","","","","","","","","","","","","","","","","","3/11/2020","7/17/2013","12/10/2013","13.76","","","C1-10443720009408600","","","","","9074","2134","1788","N","N","N","N","N","N","0.00","","","test","1.000000","","","0",
"CFS800","13144137-34-2736","Texas Rural Living Inc","","603 N Avenue G","","Clifton","TX","766341533","2546753934","","","","texasruralliving@embrgmail.com","","","","","","","","","","","","","","","","","","","","","","","3/11/2020","3/1/2013","1/14/2014","450.64","","","C1-10400512684580001","","","","","9074","2135","1788","N","N","N","N","N","N","0.00","","","test","1.000000","","","0",
"CFS800","1499975-52-4814","Yadira Villarreal","","805 E Ferguson St","","Pharr","TX","785772671","9569614545","","","","yadivillarreal15@hotmail.com","","","","","","","","","","","","","","","","","","","","","","","3/11/2020","8/28/2012","1/7/2014","6788.06","","","C1-10032789496807739","","","","","9074","2136","1788","N","N","N","N","N","N","0.00","","","test","1.000000","","","0",
"CFS800","67388743-54-1036","Sweet Rush","","209 N Texas Blvd","","Alice","TX","783325056","3612078885","","","","","","","","","","","","","","","","","","","","","","","","","","","3/11/2020","12/6/2013","2/3/2014","3712.88","","","C1-10032789478402050","","","","","9074","2137","1788","N","N","N","N","N","N","0.00","","","test","1.000000","","","0",
"CFS800","14449674-21-2424","Mass Inc","","3737 Atlanta St","","Dallas","TX","752153718","4698536014","","","","jabrown@massjab.org","","","","","","","","","","","","","","","","","","","","","","","3/11/2020","10/24/2011","1/2/2014","2344.91","","","C1-10443720001438036","","","","","9074","2138","1788","N","N","N","N","N","N","0.00","","","test","1.000000","","","0",
"CFS800","15055184-95-1733","Jakes Flowers and Gifts","","PO BOX 2819","","SOUTH PADRE ISLAND","TX","785972819","9567614700","","","","jakes122@aol.com","","","","","","","","","","","","","","","","","","","","","","","3/11/2020","11/28/2012","12/13/2013","2987.90","","","C1-10032789464517991","","","","","9074","2139","1788","N","N","N","N","N","N","0.00","","","test","1.000000","","","0",
"CFS800","15582630-1-1987","K&G Ventures Inc","","6161 Savoy Dr Ste 132","","Houston","TX","770363316","7136009090","","","","admin@oliverrealtyinc.com","","","","","","","","","","","","","","","","","","","","","","","3/11/2020","10/9/2013","12/2/2013","88.50","","","C1-1008901006900250170108","","","","","9074","2140","1788","N","N","N","N","N","N","0.00","","","test","1.000000","","","0",
"CFS800","15582630-1-538","K&G Ventures Inc","","6161 Savoy Dr Ste 132","","Houston","TX","770363316","7136009090","","","","admin@oliverrealtyinc.com","","","","","","","","","","","","","","","","","","","","","","","3/11/2020","1/31/2013","12/2/2013","971.71","","","C1-1008901023813365780103","","","","","9074","2141","1788","N","N","N","N","N","N","0.00","","","test","1.000000","","","0",
"CFS800","15582630-1-5794","K&G Ventures Inc","","6161 Savoy Dr Ste 132","","Houston","TX","770363316","7136009090","","","","admin@oliverrealtyinc.com","","","","","","","","","","","","","","","","","","","","","","","3/11/2020","8/24/2012","12/2/2013","1411.07","","","C1-1008901023813317400102","","","","","9074","2142","1788","N","N","N","N","N","N","0.00","","","test","1.000000","","","0",
"CFS800","15582630-1-9100","K&G Ventures Inc","","6161 Savoy Dr Ste 132","","Houston","TX","770363316","7136009090","","","","admin@oliverrealtyinc.com","","","","","","","","","","","","","","","","","","","","","","","3/11/2020","1/31/2013","12/2/2013","251.92","","","C1-1008901023813580580103","","","","","9074","2143","1788","N","N","N","N","N","N","0.00","","","test","1.000000","","","0",
"CFS800","15582630-1-9130","K&G Ventures Inc","","6161 Savoy Dr Ste 132","","Houston","TX","770363316","7136009090","","","","admin@oliverrealtyinc.com","","","","","","","","","","","","","","","","","","","","","","","3/11/2020","10/9/2013","12/2/2013","38.16","","","C1-1008901023813360350103","","","","","9074","2144","1788","N","N","N","N","N","N","0.00","","","test","1.000000","","","0",
"CFS800","20438707-93-3341","American Spectrum Realty- Inc.-50200","","7700 IRVINE CENTER DR STE 780","","IRVINE","TX","926183021","7137066200","","","","","","","","","","","","","","","","","","","","","","","","","","","3/11/2020","5/12/2010","4/3/2012","1914.35","","","C1-1008901023803444140100","","","","","9074","2145","1788","N","N","N","N","N","N","0.00","","","test","1.000000","","","0",
"CFS800","25003682-71-4907","Mi Bodega Ropa Usada y Accesories","","2101 W Military Hwy Ste H4","","Mcallen","TX","785035705","9566380557","","","","comrsj@hotmail.com","","","","","","","","","","","","","","","","","","","","","","","3/11/2020","9/18/2012","12/27/2013","1321.45","","","C1-10032789416400335","","","","","9074","2146","1788","N","N","N","N","N","N","0.00","","","test","1.000000","","","0",
"CFS800","2737509-82-7696","McDowel and Company","","1101 Ohio Dr Ste 107","","Plano","TX","75093","2147839657","","","","rmcdowell@mcd.co.com","","","","","","","","","","","","","","","","","","","","","","","3/11/2020","5/30/2013","1/27/2014","531.25","","","C1-10443720006785536","","","","","9074","2147","1788","N","N","N","N","N","N","0.00","","","test","1.000000","","","0",
"CFS800","28715450-16-6656","Daghlas- Ibrahim","","5050 AIRPORT   FWY","","Haltom City","TX","761170000","8177051920","","","","daghlasi@yahoo.com","","","","","","","","","","","","","","","","","","","","","","","3/11/2020","5/12/2010","1/6/2014","2032.86","","","C1-10443720004036277","","","","","9074","2148","1788","N","N","N","N","N","N","0.00","","","test","1.000000","","","0",
"CFS800","30358294-18-9175","Alamo Ballroom & Dinner","","123 8th st","","Alamo","TX","78516","9565335277","","","","","","","","","","","","","","","","","","","","","","","","","","","3/11/2020","9/16/2010","1/7/2014","1665.42","","","C1-10032789414786201","","","","","9074","2149","1788","N","N","N","N","N","N","0.00","","","test","1.000000","","","0",
"CFS800","31876628-55-1294","Mia Bella Restaurant","","110 Vintage Park Blvd A","","Houston","TX","77070","2812518300","","","","","","","","","","","","","","","","","","","","","","","","","","","3/11/2020","1/13/2014","1/28/2014","17065.39","","","C1-1008901022900120190107","","","","","9074","2150","1788","N","N","N","N","N","N","0.00","","","test","1.000000","","","0",
"CFS800","32393074-9-289","B'S Unique","","710 W HIDALGO AVE","","RAYMONDVILLE","TX","785802339","9564518832","","","","cadena_edward@yahoo.com","","","","","","","","","","","","","","","","","","","","","","","3/11/2020","3/19/2010","12/13/2012","2020.50","","","C1-10032789435318320","","","","","9074","2151","1788","N","N","N","N","N","N","0.00","","","test","1.000000","","","0",
"CFS800","32932286-10-8301","Akbar Ali N. Maredia","","6308 Lyons Ave Ste A","","Houston","TX","770200000","8329646728","","","","","","","","","","","","","","","","","","","","","","","","","","","3/11/2020","7/26/2007","1/13/2014","2131.10","","","C1-1008901004100065934100","","","","","9074","2152","1788","N","N","N","N","N","N","0.00","","","test","1.000000","","","0",
"CFS800","33795057-47-1457","Night Life Ventures","","2429 Bissonnet St.","","Houston","TX","77005","7138698333","","","","invest-co500@hotmail.com","","","","","","","","","","","","","","","","","","","","","","","3/11/2020","5/2/2013","1/13/2014","3698.48","","","C1-1008901006189032217100","","","","","9074","2153","1788","N","N","N","N","N","N","0.00","","","test","1.000000","","","0",
"CFS800","34426399-38-7047","Lekali INC dba Park Cleaners","","716 e timberview ln","","arlington","TX","76014","8174774699","","","","target260@hotmail.com","","","","","","","","","","","","","","","","","","","","","","","3/11/2020","1/6/2011","1/3/2014","3046.07","","","C1-10443720006743506","","","","","9074","2154","1788","N","N","N","N","N","N","0.00","","","test","1.000000","","","0",
"CFS800","38597021-59-3429","Bicentenario","","3618 Niebla Dr","","Laredo","TX","780468830","9562356504","","","","","","","","","","","","","","","","","","","","","","","","","","","3/11/2020","11/8/2012","1/3/2014","1891.05","","","C1-10032789409103375","","","","","9074","2155","1788","N","N","N","N","N","N","0.00","","","test","1.000000","","","0",
"CFS800","39287019-26-9830","Gulf Coast Scrap International- Inc","","7419 Ave O","","Houston","TX","77011","7132246204","","","","vlopez@gulfcoastscrap.com","","","","","","","","","","","","","","","","","","","","","","","3/11/2020","8/22/2011","9/26/2012","16980.39","","","C1-1008901002101165185100","","","","","9074","2156","1788","N","N","N","N","N","N","0.00","","","test","1.000000","","","0",
"CFS800","40094909-10-1457","MAH Express","","12633 Memorial Dr","","Houston","TX","77024","7134400077","","","","victor_mah@hotmail.com","","","","","","","","","","","","","","","","","","","","","","","3/11/2020","4/3/2013","12/23/2013","982.78","","","C1-1008901013141651698100","","","","","9074","2157","1788","N","N","N","N","N","N","0.00","","","test","1.000000","","","0",
"CFS800","40206993-89-1853","Edison Investments LLC","","1209 S 10th St Ste A387","","McAllen","TX","78501","2108454419","","","","edison.sergioa@gmail.com","","","","","","","","","","","","","","","","","","","","","","","3/11/2020","7/31/2013","12/15/2013","1481.87","","","C1-10032789498017651","","","","","9074","2158","1788","N","N","N","N","N","N","0.00","","","test","1.000000","","","0",
"CFS800","51953183-25-4821","KitchCo Realty- Ltd","","333 West Loop N Ste 410","","Houston","TX","770247709","7136883926","","","","corporateassistantsharon@gmail.com","","","","","","","","","","","","","","","","","","","","","","","3/11/2020","8/1/2013","1/2/2014","197.52","","","C1-1008901016900708490113","","","","","9074","2159","1788","N","N","N","N","N","N","0.00","","","test","1.000000","","","0",
"CFS800","62099984-85-6498","Jose Luis Garza Attorney at Law","","100 N FM 3167 STE 217","","Rio Grande City","TX","785823534","9564870303","","","","gina_kramers@yahoo.com","","","","","","","","","","","","","","","","","","","","","","","3/11/2020","4/28/2009","12/30/2013","69.65","","","C1-10032789453439031","","","","","9074","2160","1788","N","N","N","N","N","N","0.00","","","test","1.000000","","","0",
"CFS800","77829360-58-2374","Old Humble Rd Plaza","","14925 Old Humble Rd A","","Humble","TX","773960000","2814415360","","","","ilzahernandez@gmail.com","","","","","","","","","","","","","","","","","","","","","","","3/11/2020","5/3/2012","1/22/2014","4275.20","","","C1-1008901020900303940109","","","","","9074","2161","1788","N","N","N","N","N","N","0.00","","","test","1.000000","","","0",
"CFS800","80963763-40-3712","Children's Enchanted Learning Center","","4822 SPACE CENTER BLVD","","Pasadena","TX","775050000","2819913999","","","","shicks4822@sbcglobal.net","","","","","","","","","","","","","","","","","","","","","","","3/11/2020","8/3/2009","8/29/2012","2248.41","","","C1-1008901023811609370100","","","","","9074","2162","1788","N","N","N","N","N","N","0.00","","","test","1.000000","","","0",
"CFS800","8249286-30-8368","Fort Worth Seafood","","4158 E Rosedale St Ste A","","Fort Worth","TX","761051739","8174310582","","","","","","","","","","","","","","","","","","","","","","","","","","","3/11/2020","6/27/2013","12/27/2013","4297.70","","","C1-10443720006081536","","","","","9074","2163","1788","N","N","N","N","N","N","0.00","","","test","1.000000","","","0",
"CFS800","83144553-74-7694","Big Ben Tavern","","8111 Wateka Dr","","Houston","TX","77074","8324342670","","","","","","","","","","","","","","","","","","","","","","","","","","","3/11/2020","9/12/2012","1/2/2014","1295.96","","","C1-1008901014127213350100","","","","","9074","2164","1788","N","N","N","N","N","N","0.00","","","test","1.000000","","","0",
"CFS800","94811662-87-824","Bi Rite Laundry","","2600 Canterbury Dr","","Mission","TX","785729766","9565857231","","","","","","","","","","","","","","","","","","","","","","","","","","","3/11/2020","6/30/2009","1/10/2014","473.00","","","C1-10032789426762950","","","","","9074","2165","1788","N","N","N","N","N","N","0.00","","","test","1.000000","","","0",
"CFS800","46866294-47-2822","Executive Inn","","4758 E Us Highway 83","","Rio Grande City","TX","78582","9565653121","","","","","","","","","","","","","","","","","","","","","","","","","","","3/11/2020","1/3/2013","1/16/2014","3756.69","","","C1-10032789441700276","","","","","9074","2166","1788","N","N","N","N","N","N","0.00","","","test","1.000000","","","0",
"CFS800","46866294-47-5201","Executive Inn","","5274 E Us Highway 83 Unit Sign","","Rio Grande City","TX","78582","9565653121","","","","","","","","","","","","","","","","","","","","","","","","","","","3/11/2020","1/3/2013","1/16/2014","281.93","","","C1-10032789418053538","","","","","9074","2167","1788","N","N","N","N","N","N","0.00","","","test","1.000000","","","0",
"CFS800","46866294-47-9835","Executive Inn","","5274 E Us Highway 83","","Rio Grande City","TX","78582","9565653121","","","","","","","","","","","","","","","","","","","","","","","","","","","3/11/2020","1/3/2013","1/16/2014","4491.66","","","C1-10032789466485056","","","","","9074","2168","1788","N","N","N","N","N","N","0.00","","","test","1.000000","","","0",
