"ClientCode","AccountNo","DebtorName","ContactName","AddressLine1","AddressLine2","City","State","PostalCode","PhoneNo","PhoneNoExt","Cell","Fax","Email","ContactName_2","AddressLine1_2","AddressLine2_2","City_2","State_2","PostalCode_2","PhoneNo_2","PhoneNoExt_2","Cell_2","Fax_2","Email_2","ContactName_3","AddressLine1_3","AddressLine2_3","City_3","State_3","PostalCode_3","PhoneNo_3","PhoneNoExt_3","Cell_3","Fax_3","Email_3","ReferalDate","LastServiceDate","LastPaymentDate","TotAsgAmt","ClientAgentCode","TaxId","AccountNote","BranchNum","Location","CollectionStatus","CommRate","BatchId","BatchDebtAccountId","SubmittedByUserId","IsEstAudit","IsIntlAcct","IsJudgmentAcct","IsRapidRebate","IsSecondary","IsSkip","totcollfeeamt","AddrNote_2","AddrNote_3","ServiceType","ExchangeRate","BranchNum","FixedCollRateCode","ClientGroupNum",
"CFS800","1","","General Automatic Transmission","3939.59","3618843208","3/6/2013","1/2/2014","C1","1000000000","","","1050210310","Stafford","","","","","","","","","","","","","","","","","","","","","","","3/6/2020","","","774770000.00","","","","464194659","","","","9065","2080","1788","N","N","N","N","N","N","0.00","","","test","1.000000","464194659","","0",
"CFS800","2","","Terrazas Furniture Co","41.39","4323368536","4/16/2013","10/8/2013","C1","2000000000","","","1037000000","Fort Stockton","","","","","","","","","","","","","","","","","","","","","","","3/6/2020","","","79735.00","","","terrazfurniture@gmail.com","","","","","9065","2081","1788","N","N","N","N","N","N","0.00","","","test","1.000000","","","0",
