﻿<?xml version="1.0" encoding="utf-8"?>
<!--dbAutoTrack Ltd Data-Reports.NET-->
<DataReports Version="1.5.0.0" ReportWidth="815" xmlns="www.dbAutoTrack.com">
  <Section Type="PageHeader" Name="PageHeader" Visible="False" Height="0 in" />
  <Section Type="GroupHeader" Name="GroupHeader1" Index="1" Height="1.323 in">
    <Control Type="Label" Name="dbATLabel5" TextAlign="TopRight" ForeColor="Black" Left="0.124 in" Height="0.188 in" Width="0.375 in" TextFont="Microsoft Sans Serif, 8pt, style=Bold" Top="0.438 in" Text="Job:" />
    <Control Type="TextBox" Name="dbATTextBox21" DataField="JobNum" Left="0.564 in" CanGrow="False" Height="0.188 in" Width="3.625 in" Top="0.438 in" />
    <Control Type="TextBox" Name="dbATTextBox20" TextAlign="MiddleCenter" DataField="ClientName" Left="0.126 in" CanGrow="False" Height="0.188 in" Width="7.25 in" TextFont="Microsoft Sans Serif, 12pt, style=Bold" Top="0.001 in" />
    <Control Type="Label" Name="dbATLabel7" TextAlign="MiddleCenter" ForeColor="Black" Left="0.124 in" Height="0.188 in" Width="7.25 in" TextFont="Microsoft Sans Serif, 11pt, style=Bold" Top="0.188 in" Text="NOTE HISTORY" />
    <Control Type="Label" Name="dbATLabel4" TextAlign="TopRight" ForeColor="Black" Left="4.249 in" Height="0.188 in" Width="0.625 in" TextFont="Microsoft Sans Serif, 8pt, style=Bold" Top="0.438 in" Text="Customer:" />
    <Control Type="TextBox" Name="dbATTextBox19" DataField="JobName" CanShrink="True" Left="0.564 in" CanGrow="False" WordWrap="False" Height="0.188 in" Width="3.625 in" Top="0.626 in" />
    <Control Type="TextBox" Name="dbATTextBox18" DataField="JobAdd1" Left="0.564 in" CanGrow="False" WordWrap="False" Height="0.188 in" Width="3.625 in" Top="0.812 in" />
    <Control Type="TextBox" Name="dbATTextBox17" DataField="JobCityStateZip" Left="0.564 in" CanGrow="False" WordWrap="False" Height="0.188 in" Width="3.626 in" Top="1 in" />
    <Control Type="TextBox" Name="dbATTextBox16" DataField="CustName" Left="5.001 in" CanGrow="False" Height="0.188 in" Width="3.312 in" Top="0.438 in" />
    <Control Type="TextBox" Name="dbATTextBox15" DataField="CustAdd1" Left="5.001 in" CanGrow="False" Height="0.188 in" Width="3.312 in" Top="0.626 in" />
    <Control Type="TextBox" Name="dbATTextBox11" DataField="CustCityStateZip" Left="5.001 in" CanGrow="False" Height="0.188 in" Width="3.312 in" Top="0.812 in" />
    <Control Type="TextBox" Name="dbATTextBox10" DataField="JobId" Left="0.188 in" Height="0.188 in" Width="0.75 in" Visible="False" Top="0 in" />
  </Section>
  <Section Type="Detail" Name="Detail" Height="0.76 in">
    <Control Type="Label" Name="dbATLabel3" ForeColor="Black" Left="0.124 in" Height="0.188 in" Width="1.312 in" TextFont="Microsoft Sans Serif, 8pt, style=Bold" Top="0.062 in" Text="Date Entered" />
    <Control Type="TextBox" Name="dbATTextBox2" DataField="DatePrinted" Left="0.564 in" OutputFormat="MM/dd/yy" Height="0.188 in" Width="1 in" Top="1.312 in" />
    <Control Type="Label" Name="dbATLabel2" TextAlign="TopRight" ForeColor="Black" Left="0.061 in" Height="0.188 in" Width="0.376 in" TextFont="Microsoft Sans Serif, 8pt, style=Bold" Top="1.312 in" Text="Dated:" />
    <Control Type="TextBox" Name="dbATTextBox1" DataField="DatePrinted" Left="0.564 in" OutputFormat="MM/dd/yy" Height="0.188 in" Width="1 in" Top="1.312 in" />
    <Control Type="Label" Name="dbATLabel1" TextAlign="TopRight" ForeColor="Black" Left="0.061 in" Height="0.188 in" Width="0.376 in" TextFont="Microsoft Sans Serif, 8pt, style=Bold" Top="1.312 in" Text="Dated:" />
    <Control Type="TextBox" Name="dbATTextBox8" DataField="Note" Left="1.624 in" Height="0.438 in" Width="6.312 in" Top="0.062 in" />
    <Control Type="TextBox" Name="dbATTextBox5" DataField="DateCreated" Left="0.125 in" Height="0.125 in" Width="1.312 in" Top="0.312 in" />
    <Control Type="Line" Name="dbATLine1" LineWeight="1" Left="0.125 in" BorderTopColor="Transparent" BorderRightColor="Transparent" X2="7.875 in" Y2="0.625 in" Height="0 in" Width="7.75 in" BorderLeftColor="Transparent" X1="0.125 in" Y1="0.625 in" Top="0.625 in" BorderBottomColor="Transparent" />
  </Section>
  <Section Type="GroupFooter" Name="GroupFooter1" Height="0.215 in" NewPage="After" />
  <Section Type="PageFooter" Name="PageFooter" Height="0 in" />
  <PageSettings Orientation="Portrait" MarginLeft="0.1" MarginTop="0.2" MarginBottom="0.25" MarginRight="0.1" PaperKind="A4" />
  <DataSource CommandText="UwBFAEwARQBDAFQAIAAqAAoARgBSAE8ATQAgACAAdgB3AEoAbwBiAE4AbwB0AGUASABpAHMAdABvAHIAeQAgAHYAdwAKAHcAaABlAHIAZQAgAEoAbwBiAEkAZAAgAD0AIAAzADAANwA5ADQAMgAKACAACgAgAAoAIAAKACAACgAgAA==" ConnectionString="cwBlAHIAdgBlAHIAPQAxADAALgAwAC4AMQAuADEAMQA0ADsAQwBvAG4AbgBlAGMAdAAgAFQAaQBtAGUAbwB1AHQAPQA1ADsAVQBTAEUAUgAgAEkARAA9AFMAQQA7AEkAbgBpAHQAaQBhAGwAIABDAGEAdABhAGwAbwBnAD0AQwBSAEYARABCADsAUABSAE8AVgBJAEQARQBSAD0AUwBRAEwATwBMAEUARABCADsA" />
  <Scripting Lang="VB" />
</DataReports>