ESG # No Zero/Cust ID,Cust Name,Company Name,Final Amt Due,Phone,Start Date,Last Bill/End Date,Plan Group,Premise ID,Premise Add,Premise City,Premise Zip,Email,Social S#,Credit Score,Serv Add,Serv Add City,Serv Add Zip,ETF,Extra Ph #
70469063-3-8289,,General Automatic Transmission,3939.59,3618843208,3/6/2013,1/2/2014,C1,10032789494486991,10502 Fountain Lake Dr #1031,Stafford,774770000,,464194659,2606,2726 S Port Ave,Corpus Christi,784052035,4507.79,
27948778-88-7775,,Terrazas Furniture Co,41.39,4323368536,4/16/2013,10/8/2013,C1,10400514718630001,1037 Bluebird Ln Apt A,Fort Stockton,79735,terrazfurniture@gmail.com,,065,1037 Bluebird Ln Apt A,Fort Stockton,79735,16.27,
22832511-25-8908,,Main Place Cleaners,96.08,8179194775,4/18/2012,10/14/2013,C1,10443720002866266,2106 N Main St,Cleburne,760335010,,,777,129 S Ridgeway Dr,Cleburne,760330000,78.29,
58114820-4-1414,,The Goldmine- Inc,33.03,9566183711,8/20/2009,7/27/2012,C1,10032789490043661,500 N Jackson Rd Ste 423 El Centro Mall,Pharr,785770000,AZTECSUN22@AOL.COM,449066393,626,500 N JACKSON RD UNIT 423,Pharr,785770000,,
85471005-91-188,,Ruiz- Jose,60.46,9568782268,4/15/2009,8/10/2012,C1,10032789418792969,1121 N 4th Ave Apt 7hm,Edinburg,785413567,joseluisruiz52@gmail.com,643149743,,1121 N 4TH AVE APT 7HM,EDINBURG,785413567,,
47714116-30-4518,,LULU Enterprises dba LULU Liquor,24.7,7132705347,12/21/2009,12/13/2012,C1,1008901017127161094100,8631 BEECHNUT  ST #A,Houston,770366733,pljimon@yahoo.com,629903536,,8631 BEECHNUT  ST #A,Houston,770366733,,
62239365-12-6749,,My Diamond Shoppe Too,44.01,9728818306,8/20/2012,6/11/2013,C1,10443720003439700,1301 Custer Rd Ste 300,Plano,750757499,stump2252@msn.com,458987299,2684,1301 Custer Rd Ste 300,Plano,75075,,
67096262-46-8880,,SERVOS,17.69,2816357614,6/24/2010,6/21/2013,C1,1008901004410123760100,412 15TH   ST RR,Galveston,775500000,2NSF2,,,412 15TH   ST RR,Galveston,775500000,,
78263287-1-1799,,Kenny K N. Enterprise dba Irving Beer & Wine,1399.63,2145664399,5/4/2009,12/30/2011,C1,10443720003550434,2215 N STORY RD,Irving,750620000,rush2dude@yahoo.com,637321457,80,02215 N STORY   RD,Irving,750620000,1332.98,
2302283-99-9856,,Meat Planet Inc,724.68,2819487601,11/18/2011,12/6/2013,C1,1008901023814349020103,1606 Ahrens St,Houston,770173802,isela-elizondo@hotmail.com,,80,1606 Ahrens St,Houston,770170000,112.01,
81583928-11-2192,,Pescados Y Mariscos La Estrella,3370.02,8304212672,3/12/2012,12/3/2013,C1,10032789412539920,2217 E Main St,Uvalde,788014946,jserrato_11@hotmail.com,,76,2217 E Main St,Uvalde,788010000,93.54,
52023647-72-5310,,Oakridge Restaurants LLC,965.29,2813582637,1/15/2013,1/14/2014,C1,1008901008536061475100,1377 Kingwood Dr,Kingwood,773393037,nsf1sraziuddin@comcast.net,419134403,2657,1377 Kingwood Dr,Kingwood,77339,,
24928118-93-9778,,Peggy's Boutique,1045.09,3619441082,2/11/2013,1/2/2014,C1,10032789498743285,5133 Kostoryz Rd Ste C,Corpus Christi,784151964,peggyvega37@yahoo.com,464757852,2677,5133 Kostoryz Rd Unit 3,Corpus Christi,78415,771.27,
65152955-32-2717,,Rocky's,355.58,3613642177,6/3/2009,1/14/2014,C1,10032789404231355,425 E SINTON ST,Sinton,783870000,kgerla@yahoo.com,,86,425 E SINTON ST,SINTON,783872854,64.56,
30511027-41-3590,,Rush Enterprises,196.53,8306265200,7/17/2013,12/17/2013,C1,10032789418177010,176 Highway 59 S,Edna,779574668,,,068,10216 Union Pacific Blvd,Laredo,78045,,
30511027-41-2597,,Rush Enterprises,31.38,8306265200,7/17/2013,12/10/2013,C1,10032789402786566,176 Highway 59 S,Edna,779574668,,,068,176 Highway 59 S Trlr,Edna,77957,,
30511027-41-4932,,Rush Enterprises,19.15,8306265200,7/17/2013,12/17/2013,C1,10032789489424755,176 Highway 59 S,Edna,779574668,,,068,10216 Union Pacific Blvd Unit Rear,Laredo,78045,,
30511027-41-8627,,Rush Enterprises,18.48,8306265200,7/17/2013,12/10/2013,C1,10032789467593169,176 Highway 59 S,Edna,779574668,,,068,176 US HIGHWAY 59 NBAC UNIT MOTORS,Edna,77957,,
30511027-41-2867,,Rush Enterprises,14.45,8306265200,7/17/2013,12/10/2013,C1,10443720004792145,176 Highway 59 S,Edna,779574668,,,068,11042 Us Highway 69 N Grdl,Tyler,75706,,
30511027-41-2564,,Rush Enterprises,14.05,8306265200,7/17/2013,12/7/2013,C1,10443720006462577,176 Highway 59 S,Edna,779574668,,,068,3901 N Medford Dr,Lufkin,75901,,
30511027-41-9761,,Rush Enterprises,13.76,8306265200,7/17/2013,12/10/2013,C1,10443720009408600,176 Highway 59 S,Edna,779574668,,,068,11042 Us Highway 69 Unit 2,Tyler,75706,,
13144137-34-2736,,Texas Rural Living Inc,450.64,2546753934,3/1/2013,1/14/2014,C1,10400512684580001,603 N Avenue G,Clifton,766341533,texasruralliving@embrgmail.com,,073,603 N Avenue G,Clifton,76634,294.41,
1499975-52-4814,,Yadira Villarreal,6788.06,9569614545,8/28/2012,1/7/2014,C1,10032789496807739,805 E Ferguson St,Pharr,785772671,yadivillarreal15@hotmail.com,459693688,777,805 E Ferguson St,Pharr,78577,4161.38,
67388743-54-1036,,Sweet Rush,3712.88,3612078885,12/6/2013,2/3/2014,C1,10032789478402050,209 N Texas Blvd,Alice,783325056,,,189,209 N Texas Blvd,Alice,783325056,2682.78,
14449674-21-2424,,Mass Inc,2344.91,4698536014,10/24/2011,1/2/2014,C1,10443720001438036,3737 Atlanta St,Dallas,752153718,jabrown@massjab.org,460725500,63,3737 Atlanta St,Dallas,752150000,0,
15055184-95-1733,,Jakes Flowers and Gifts,2987.9,9567614700,11/28/2012,12/13/2013,C1,10032789464517991,PO BOX 2819,SOUTH PADRE ISLAND,785972819,jakes122@aol.com,,777,101 S Shore Dr Unit 4,Port Isabel,78578,0,
15582630-1-1987,,K&G Ventures Inc,88.5,7136009090,10/9/2013,12/2/2013,C1,1008901006900250170108,6161 Savoy Dr Ste 132,Houston,770363316,admin@oliverrealtyinc.com,,,11509 Veterans Memorial Dr #100,Houston,77067,,
15582630-1-538,,K&G Ventures Inc,971.71,7136009090,1/31/2013,12/2/2013,C1,1008901023813365780103,6161 Savoy Dr Ste 132,Houston,770363316,admin@oliverrealtyinc.com,,,11509 Veterans Memorial Dr #720,Houston,77067,,
15582630-1-5794,,K&G Ventures Inc,1411.07,7136009090,8/24/2012,12/2/2013,C1,1008901023813317400102,6161 Savoy Dr Ste 132,Houston,770363316,admin@oliverrealtyinc.com,,,11509 Veterans Memorial Dr,Houston,77067,17.98,
15582630-1-9100,,K&G Ventures Inc,251.92,7136009090,1/31/2013,12/2/2013,C1,1008901023813580580103,6161 Savoy Dr Ste 132,Houston,770363316,admin@oliverrealtyinc.com,,,11509 Veterans Memorial Dr #600,Houston,77067,,
15582630-1-9130,,K&G Ventures Inc,38.16,7136009090,10/9/2013,12/2/2013,C1,1008901023813360350103,6161 Savoy Dr Ste 132,Houston,770363316,admin@oliverrealtyinc.com,,,11509 Veterans Memorial Dr #500,Houston,77067,,
20438707-93-3341,,American Spectrum Realty- Inc.-50200,1914.35,7137066200,5/12/2010,4/3/2012,C1,1008901023803444140100,7700 IRVINE CENTER DR STE 780,IRVINE,926183021,,,76,9630 CLAREWOOD DR A,HOUSTON,770363512,1494.6,
25003682-71-4907,,Mi Bodega Ropa Usada y Accesories,1321.45,9566380557,9/18/2012,12/27/2013,C1,10032789416400335,2101 W Military Hwy Ste H4,Mcallen,785035705,comrsj@hotmail.com,,157,2101 W MILITARY HWY UNIT H-4,Mcallen,785035705,554.69,
2737509-82-7696,,McDowel and Company,531.25,2147839657,5/30/2013,1/27/2014,C1,10443720006785536,1101 Ohio Dr Ste 107,Plano,75093,rmcdowell@mcd.co.com,,061,1085 Ohio Dr,Plano,750935320,0,
28715450-16-6656,,Daghlas- Ibrahim,2032.86,8177051920,5/12/2010,1/6/2014,C1,10443720004036277,5050 AIRPORT   FWY,Haltom City,761170000,daghlasi@yahoo.com,634805125,651,5050 AIRPORT   FWY,Haltom City,761170000,0,
30358294-18-9175,,Alamo Ballroom & Dinner,1665.42,9565335277,9/16/2010,1/7/2014,C1,10032789414786201,123 8th st,Alamo,78516,,570561085,612,133 S 8TH ST UNIT B,Alamo,785162797,458.7,
31876628-55-1294,,Mia Bella Restaurant,17065.39,2812518300,1/13/2014,1/28/2014,C1,1008901022900120190107,110 Vintage Park Blvd A,Houston,77070,,,777,110 Vintage Park Blvd Ste A,Houston,770704047,15877.25,
32393074-9-289,,B'S Unique,2020.5,9564518832,3/19/2010,12/13/2012,C1,10032789435318320,710 W HIDALGO AVE,RAYMONDVILLE,785802339,cadena_edward@yahoo.com,455551971,0,270 N SAM HOUSTON BLVD,San Benito,785864655,0,
32932286-10-8301,,Akbar Ali N. Maredia,2131.1,8329646728,7/26/2007,1/13/2014,C1,1008901004100065934100,6308 Lyons Ave Ste A,Houston,770200000,,622405393,0,6308 LYONS  AVE A,Houston,770200000,880.34,
33795057-47-1457,,Night Life Ventures,3698.48,7138698333,5/2/2013,1/13/2014,C1,1008901006189032217100,2429 Bissonnet St.,Houston,77005,invest-co500@hotmail.com,,420,6009 Beverlyhill St,Houston,77057,150,
34426399-38-7047,,Lekali INC dba Park Cleaners,3046.07,8174774699,1/6/2011,1/3/2014,C1,10443720006743506,716 e timberview ln,arlington,76014,target260@hotmail.com,633545997,80,01071 Country Club Dr Ste 110,Mansfield,760630000,1074.05,
38597021-59-3429,,Bicentenario,1891.05,9562356504,11/8/2012,1/3/2014,C1,10032789409103375,3618 Niebla Dr,Laredo,780468830,,,168,1920 San Agustin Ave,Laredo,78040,1644.24,
39287019-26-9830,,Gulf Coast Scrap International- Inc,16980.39,7132246204,8/22/2011,9/26/2012,C1,1008901002101165185100,7419 Ave O,Houston,77011,vlopez@gulfcoastscrap.com,,76,1505 Gentry St,Houston,770090000,0,
40094909-10-1457,,MAH Express,982.78,7134400077,4/3/2013,12/23/2013,C1,1008901013141651698100,12633 Memorial Dr,Houston,77024,victor_mah@hotmail.com,,777,4565 Griggs Rd,Houston,77021,227.89,
40206993-89-1853,,Edison Investments LLC,1481.87,2108454419,7/31/2013,12/15/2013,C1,10032789498017651,1209 S 10th St Ste A387,McAllen,78501,edison.sergioa@gmail.com,,155,202 E Van Buren Ave,Harlingen,78550,0,
51953183-25-4821,,KitchCo Realty- Ltd,197.52,7136883926,8/1/2013,1/2/2014,C1,1008901016900708490113,333 West Loop N Ste 410,Houston,770247709,corporateassistantsharon@gmail.com,,080,1010 Washington Ave,Houston,77002,0,
62099984-85-6498,,Jose Luis Garza Attorney at Law,69.65,9564870303,4/28/2009,12/30/2013,C1,10032789453439031,100 N FM 3167 STE 217,Rio Grande City,785823534,gina_kramers@yahoo.com,454396601,,620 N FLORES ST,RIO GRANDE CITY,785823534,69.65,
77829360-58-2374,,Old Humble Rd Plaza,4275.2,2814415360,5/3/2012,1/22/2014,C1,1008901020900303940109,14925 Old Humble Rd A,Humble,773960000,ilzahernandez@gmail.com,,066,14925 Old Humble Rd Ste A,Humble,773964593,0,
80963763-40-3712,,Children's Enchanted Learning Center,2248.41,2819913999,8/3/2009,8/29/2012,C1,1008901023811609370100,4822 SPACE CENTER BLVD,Pasadena,775050000,shicks4822@sbcglobal.net,163460911,,4822 SPACE CENTER BLVD,Pasadena,775050000,2141.34,
8249286-30-8368,,Fort Worth Seafood,4297.7,8174310582,6/27/2013,12/27/2013,C1,10443720006081536,4158 E Rosedale St Ste A,Fort Worth,761051739,,,777,4158 E Rosedale St Ste A,Fort Worth,76105,2249.05,
83144553-74-7694,,Big Ben Tavern,1295.96,8324342670,9/12/2012,1/2/2014,C1,1008901014127213350100,8111 Wateka Dr,Houston,77074,,,420,8111 Wateka Dr,Houston,77074,157.6,
94811662-87-824,,Bi Rite Laundry,473,9565857231,6/30/2009,1/10/2014,C1,10032789426762950,2600 Canterbury Dr,Mission,785729766,,563627977,592,4307 S CONWAY AVE UNIT LNDY,Mission,785721523,16.3,
46866294-47-2822,,Executive Inn,3756.69,9565653121,1/3/2013,1/16/2014,C1,10032789441700276,4758 E Us Highway 83,Rio Grande City,78582,,,165,1990 W Expressway 83,Mercedes,785709700,,
46866294-47-5201,,Executive Inn,281.93,9565653121,1/3/2013,1/16/2014,C1,10032789418053538,5274 E Us Highway 83 Unit Sign,Rio Grande City,78582,,,165,1990 W Expressway 83,Mercedes,785709700,,
46866294-47-9835,,Executive Inn,4491.66,9565653121,1/3/2013,1/16/2014,C1,10032789466485056,5274 E Us Highway 83,Rio Grande City,78582,,,165,1990 W Expressway 83,Mercedes,785709700,,
