-----------Exception Details on  7/1/2019 3:04:08 PM-----------------
-------------------------------------------------------------------------------------



Log Written Date: 7/1/2019 3:04:08 PM

Error Line No : ne 1394

Error Message: SqlException

Exception Type: System.Data.SqlClient.SqlException

Error Location : A network-related or instance-specific error occurred while establishing a connection to SQL Server. The server was not found or was not accessible. Verify that the instance name is correct and that SQL Server is configured to allow remote connections. (provider: Named Pipes Provider, error: 40 - Could not open a connection to SQL Server)

 Error Page Url: http://localhost/CRFView/WorkCard/ShowFilterModal

User Host IP: 


--------------------------------*End*------------------------------------------



-----------Exception Details on  7/1/2019 3:04:24 PM-----------------
-------------------------------------------------------------------------------------



Log Written Date: 7/1/2019 3:04:24 PM

Error Line No : ne 1417

Error Message: SqlException

Exception Type: System.Data.SqlClient.SqlException

Error Location : A network-related or instance-specific error occurred while establishing a connection to SQL Server. The server was not found or was not accessible. Verify that the instance name is correct and that SQL Server is configured to allow remote connections. (provider: Named Pipes Provider, error: 40 - Could not open a connection to SQL Server)

 Error Page Url: http://localhost/CRFView/WorkCard/ShowFilterModal

User Host IP: 


--------------------------------*End*------------------------------------------



-----------Exception Details on  7/1/2019 3:04:24 PM-----------------
-------------------------------------------------------------------------------------



Log Written Date: 7/1/2019 3:04:24 PM

Error Line No : ne 1440

Error Message: SqlException

Exception Type: System.Data.SqlClient.SqlException

Error Location : A network-related or instance-specific error occurred while establishing a connection to SQL Server. The server was not found or was not accessible. Verify that the instance name is correct and that SQL Server is configured to allow remote connections. (provider: Named Pipes Provider, error: 40 - Could not open a connection to SQL Server)

 Error Page Url: http://localhost/CRFView/WorkCard/ShowFilterModal

User Host IP: 


--------------------------------*End*------------------------------------------



-----------Exception Details on  7/1/2019 3:04:24 PM-----------------
-------------------------------------------------------------------------------------



Log Written Date: 7/1/2019 3:04:24 PM

Error Line No : ne 1464

Error Message: SqlException

Exception Type: System.Data.SqlClient.SqlException

Error Location : A network-related or instance-specific error occurred while establishing a connection to SQL Server. The server was not found or was not accessible. Verify that the instance name is correct and that SQL Server is configured to allow remote connections. (provider: Named Pipes Provider, error: 40 - Could not open a connection to SQL Server)

 Error Page Url: http://localhost/CRFView/WorkCard/ShowFilterModal

User Host IP: 


--------------------------------*End*------------------------------------------



-----------Exception Details on  7/1/2019 3:04:24 PM-----------------
-------------------------------------------------------------------------------------



Log Written Date: 7/1/2019 3:04:24 PM

Error Line No : ne 1488

Error Message: SqlException

Exception Type: System.Data.SqlClient.SqlException

Error Location : A network-related or instance-specific error occurred while establishing a connection to SQL Server. The server was not found or was not accessible. Verify that the instance name is correct and that SQL Server is configured to allow remote connections. (provider: Named Pipes Provider, error: 40 - Could not open a connection to SQL Server)

 Error Page Url: http://localhost/CRFView/WorkCard/ShowFilterModal

User Host IP: 


--------------------------------*End*------------------------------------------



-----------Exception Details on  7/1/2019 3:04:24 PM-----------------
-------------------------------------------------------------------------------------



Log Written Date: 7/1/2019 3:04:24 PM

Error Line No : ne 1513

Error Message: SqlException

Exception Type: System.Data.SqlClient.SqlException

Error Location : A network-related or instance-specific error occurred while establishing a connection to SQL Server. The server was not found or was not accessible. Verify that the instance name is correct and that SQL Server is configured to allow remote connections. (provider: Named Pipes Provider, error: 40 - Could not open a connection to SQL Server)

 Error Page Url: http://localhost/CRFView/WorkCard/ShowFilterModal

User Host IP: 


--------------------------------*End*------------------------------------------



