-----------Exception Details on  4/1/2020 12:23:44 PM-----------------
-------------------------------------------------------------------------------------



Log Written Date: 4/1/2020 12:23:44 PM

Error Line No : ine 522

Error Message: IndexOutOfRangeException

Exception Type: System.IndexOutOfRangeException

Error Location : Index was outside the bounds of the array.

 Error Page Url: http://localhost/CRFView/ImportsEDI/ImportEDI

User Host IP: 


--------------------------------*End*------------------------------------------



-----------Exception Details on  4/1/2020 4:04:18 PM-----------------
-------------------------------------------------------------------------------------



Log Written Date: 4/1/2020 4:04:18 PM

Error Line No : ine 522

Error Message: IndexOutOfRangeException

Exception Type: System.IndexOutOfRangeException

Error Location : Index was outside the bounds of the array.

 Error Page Url: http://localhost/CRFView/ImportsEDI/ImportEDI

User Host IP: 


--------------------------------*End*------------------------------------------



-----------Exception Details on  4/1/2020 4:05:06 PM-----------------
-------------------------------------------------------------------------------------



Log Written Date: 4/1/2020 4:05:06 PM

Error Line No : ine 522

Error Message: IndexOutOfRangeException

Exception Type: System.IndexOutOfRangeException

Error Location : Index was outside the bounds of the array.

 Error Page Url: http://localhost/CRFView/ImportsEDI/ImportEDI

User Host IP: 


--------------------------------*End*------------------------------------------



-----------Exception Details on  4/1/2020 8:12:51 PM-----------------
-------------------------------------------------------------------------------------



Log Written Date: 4/1/2020 8:12:51 PM

Error Line No : ne 1401

Error Message: SqlException

Exception Type: System.Data.SqlClient.SqlException

Error Location : SQL Server blocked access to procedure 'sys.xp_cmdshell' of component 'xp_cmdshell' because this component is turned off as part of the security configuration for this server. A system administrator can enable the use of 'xp_cmdshell' by using sp_configure. For more information about enabling 'xp_cmdshell', search for 'xp_cmdshell' in SQL Server Books Online.
SQL Server blocked access to procedure 'sys.xp_cmdshell' of component 'xp_cmdshell' because this component is turned off as part of the security configuration for this server. A system administrator can enable the use of 'xp_cmdshell' by using sp_configure. For more information about enabling 'xp_cmdshell', search for 'xp_cmdshell' in SQL Server Books Online.

 Error Page Url: http://localhost/CRFView/ImportJobView/ImportJobView

User Host IP: 


--------------------------------*End*------------------------------------------



