-----------Exception Details on  5/4/2018 6:43:07 PM-----------------
-------------------------------------------------------------------------------------



Log Written Date: 5/4/2018 6:43:07 PM

Error Line No : line 32

Error Message: ArgumentException

Exception Type: System.ArgumentException

Error Location : Column 'DeskId' does not belong to table Table.

 Error Page Url: http://localhost:53749/JobDeskGroup/Index

User Host IP: 


--------------------------------*End*------------------------------------------



-----------Exception Details on  5/4/2018 6:43:18 PM-----------------
-------------------------------------------------------------------------------------



Log Written Date: 5/4/2018 6:43:18 PM

Error Line No : line 32

Error Message: ArgumentException

Exception Type: System.ArgumentException

Error Location : Column 'DeskId' does not belong to table Table.

 Error Page Url: http://localhost:53749/JobDeskGroup/Refresh

User Host IP: 


--------------------------------*End*------------------------------------------



-----------Exception Details on  5/4/2018 6:44:33 PM-----------------
-------------------------------------------------------------------------------------



Log Written Date: 5/4/2018 6:44:33 PM

Error Line No : line 32

Error Message: ArgumentException

Exception Type: System.ArgumentException

Error Location : Column 'DeskId' does not belong to table Table.

 Error Page Url: http://localhost:53749/JobDeskGroup/Index

User Host IP: 


--------------------------------*End*------------------------------------------



-----------Exception Details on  5/4/2018 6:44:45 PM-----------------
-------------------------------------------------------------------------------------



Log Written Date: 5/4/2018 6:44:45 PM

Error Line No : line 32

Error Message: ArgumentException

Exception Type: System.ArgumentException

Error Location : Column 'DeskId' does not belong to table Table.

 Error Page Url: http://localhost:53749/JobDeskGroup/Refresh

User Host IP: 


--------------------------------*End*------------------------------------------



-----------Exception Details on  5/4/2018 6:46:33 PM-----------------
-------------------------------------------------------------------------------------



Log Written Date: 5/4/2018 6:46:33 PM

Error Line No : line 32

Error Message: ArgumentException

Exception Type: System.ArgumentException

Error Location : Column 'DeskId' does not belong to table Table.

 Error Page Url: http://localhost:53749/JobDeskGroup/Index

User Host IP: 


--------------------------------*End*------------------------------------------



-----------Exception Details on  5/4/2018 6:50:25 PM-----------------
-------------------------------------------------------------------------------------



Log Written Date: 5/4/2018 6:50:25 PM

Error Line No : line 37

Error Message: ArgumentException

Exception Type: System.ArgumentException

Error Location : Column 'DeskNum' does not belong to table Table.

 Error Page Url: http://localhost:53749/JobDeskRules/Index

User Host IP: 


--------------------------------*End*------------------------------------------



