-----------Exception Details on  3/6/2020 1:09:19 PM-----------------
-------------------------------------------------------------------------------------



Log Written Date: 3/6/2020 1:09:19 PM

Error Line No : tEDIVM)

Error Message: IndexOutOfRangeException

Exception Type: System.IndexOutOfRangeException

Error Location : Index 0 is either negative or above rows count.

 Error Page Url: http://localhost/CRFView/ImportEDI/ImportEDI

User Host IP: 


--------------------------------*End*------------------------------------------



-----------Exception Details on  3/6/2020 1:12:17 PM-----------------
-------------------------------------------------------------------------------------



Log Written Date: 3/6/2020 1:12:17 PM

Error Line No : tEDIVM)

Error Message: IndexOutOfRangeException

Exception Type: System.IndexOutOfRangeException

Error Location : Index 0 is either negative or above rows count.

 Error Page Url: http://localhost/CRFView/ImportEDI/ImportEDI

User Host IP: 


--------------------------------*End*------------------------------------------



-----------Exception Details on  3/6/2020 1:31:24 PM-----------------
-------------------------------------------------------------------------------------



Log Written Date: 3/6/2020 1:31:24 PM

Error Line No : line 92

Error Message: SqlException

Exception Type: System.Data.SqlClient.SqlException

Error Location : Arithmetic overflow error converting numeric to data type numeric.

 Error Page Url: http://localhost/CRFView/ImportEDI/ImportEDI

User Host IP: 


--------------------------------*End*------------------------------------------



-----------Exception Details on  3/6/2020 2:49:43 PM-----------------
-------------------------------------------------------------------------------------



Log Written Date: 3/6/2020 2:49:43 PM

Error Line No : line 92

Error Message: SqlException

Exception Type: System.Data.SqlClient.SqlException

Error Location : Arithmetic overflow error converting numeric to data type numeric.

 Error Page Url: http://localhost/CRFView/ImportEDI/ImportEDI

User Host IP: 


--------------------------------*End*------------------------------------------



-----------Exception Details on  3/6/2020 2:51:09 PM-----------------
-------------------------------------------------------------------------------------



Log Written Date: 3/6/2020 2:51:09 PM

Error Line No : line 92

Error Message: SqlException

Exception Type: System.Data.SqlClient.SqlException

Error Location : Arithmetic overflow error converting numeric to data type numeric.

 Error Page Url: http://localhost/CRFView/ImportEDI/ImportEDI

User Host IP: 


--------------------------------*End*------------------------------------------



-----------Exception Details on  3/6/2020 2:55:31 PM-----------------
-------------------------------------------------------------------------------------



Log Written Date: 3/6/2020 2:55:31 PM

Error Line No : line 92

Error Message: SqlException

Exception Type: System.Data.SqlClient.SqlException

Error Location : Arithmetic overflow error converting numeric to data type numeric.

 Error Page Url: http://localhost/CRFView/ImportEDI/ImportEDI

User Host IP: 


--------------------------------*End*------------------------------------------



-----------Exception Details on  3/6/2020 4:52:26 PM-----------------
-------------------------------------------------------------------------------------



Log Written Date: 3/6/2020 4:52:26 PM

Error Line No : line 97

Error Message: InvalidOperationException

Exception Type: System.InvalidOperationException

Error Location : Showing a modal dialog box or form when the application is not running in UserInteractive mode is not a valid operation. Specify the ServiceNotification or DefaultDesktopOnly style to display a notification from a service application.

 Error Page Url: http://localhost/CRFView/ImportEDI/ImportEDI

User Host IP: 


--------------------------------*End*------------------------------------------



-----------Exception Details on  3/6/2020 4:56:47 PM-----------------
-------------------------------------------------------------------------------------



Log Written Date: 3/6/2020 4:56:47 PM

Error Line No : line 97

Error Message: InvalidOperationException

Exception Type: System.InvalidOperationException

Error Location : Showing a modal dialog box or form when the application is not running in UserInteractive mode is not a valid operation. Specify the ServiceNotification or DefaultDesktopOnly style to display a notification from a service application.

 Error Page Url: http://localhost/CRFView/ImportEDI/ImportEDI

User Host IP: 


--------------------------------*End*------------------------------------------



-----------Exception Details on  3/6/2020 5:01:26 PM-----------------
-------------------------------------------------------------------------------------



Log Written Date: 3/6/2020 5:01:26 PM

Error Line No : line 97

Error Message: InvalidOperationException

Exception Type: System.InvalidOperationException

Error Location : Showing a modal dialog box or form when the application is not running in UserInteractive mode is not a valid operation. Specify the ServiceNotification or DefaultDesktopOnly style to display a notification from a service application.

 Error Page Url: http://localhost/CRFView/ImportEDI/ImportEDI

User Host IP: 


--------------------------------*End*------------------------------------------



-----------Exception Details on  3/6/2020 5:43:02 PM-----------------
-------------------------------------------------------------------------------------



Log Written Date: 3/6/2020 5:43:02 PM

Error Line No : line 93

Error Message: SqlException

Exception Type: System.Data.SqlClient.SqlException

Error Location : Arithmetic overflow error converting numeric to data type numeric.

 Error Page Url: http://localhost/CRFView/ImportEDI/ImportEDI

User Host IP: 


--------------------------------*End*------------------------------------------



-----------Exception Details on  3/6/2020 5:48:06 PM-----------------
-------------------------------------------------------------------------------------



Log Written Date: 3/6/2020 5:48:06 PM

Error Line No : line 86

Error Message: NullReferenceException

Exception Type: System.NullReferenceException

Error Location : Object reference not set to an instance of an object.

 Error Page Url: http://localhost/CRFView/ImportEDI/ImportEDI

User Host IP: 


--------------------------------*End*------------------------------------------



-----------Exception Details on  3/6/2020 5:50:21 PM-----------------
-------------------------------------------------------------------------------------



Log Written Date: 3/6/2020 5:50:21 PM

Error Line No : line 93

Error Message: SqlException

Exception Type: System.Data.SqlClient.SqlException

Error Location : Arithmetic overflow error converting numeric to data type numeric.

 Error Page Url: http://localhost/CRFView/ImportEDI/ImportEDI

User Host IP: 


--------------------------------*End*------------------------------------------



-----------Exception Details on  3/6/2020 6:10:20 PM-----------------
-------------------------------------------------------------------------------------



Log Written Date: 3/6/2020 6:10:20 PM

Error Line No : line 93

Error Message: SqlException

Exception Type: System.Data.SqlClient.SqlException

Error Location : Arithmetic overflow error converting numeric to data type numeric.

 Error Page Url: http://localhost/CRFView/ImportEDI/ImportEDI

User Host IP: 


--------------------------------*End*------------------------------------------



-----------Exception Details on  3/6/2020 8:55:59 PM-----------------
-------------------------------------------------------------------------------------



Log Written Date: 3/6/2020 8:55:59 PM

Error Line No : line 93

Error Message: SqlException

Exception Type: System.Data.SqlClient.SqlException

Error Location : Arithmetic overflow error converting numeric to data type numeric.

 Error Page Url: http://localhost/CRFView/ImportEDI/ImportEDI

User Host IP: 


--------------------------------*End*------------------------------------------



