-----------Exception Details on  8/13/2019 3:34:14 PM-----------------
-------------------------------------------------------------------------------------



Log Written Date: 8/13/2019 3:34:14 PM

Error Line No : ine 379

Error Message: SqlException

Exception Type: System.Data.SqlClient.SqlException

Error Location : The INSERT statement conflicted with the FOREIGN KEY constraint "FK_DebtAddress_Debt". The conflict occurred in database "CRFSDBqa", table "dbo.Debt", column 'DebtId'.
The statement has been terminated.

 Error Page Url: http://localhost/CRFView/WorkCard/SaveAddress

User Host IP: 


--------------------------------*End*------------------------------------------



-----------Exception Details on  8/13/2019 3:38:11 PM-----------------
-------------------------------------------------------------------------------------



Log Written Date: 8/13/2019 3:38:11 PM

Error Line No : ine 379

Error Message: SqlException

Exception Type: System.Data.SqlClient.SqlException

Error Location : The INSERT statement conflicted with the FOREIGN KEY constraint "FK_DebtAddress_Debt". The conflict occurred in database "CRFSDBqa", table "dbo.Debt", column 'DebtId'.
The statement has been terminated.

 Error Page Url: http://localhost/CRFView/WorkCard/SaveAddress

User Host IP: 


--------------------------------*End*------------------------------------------



-----------Exception Details on  8/13/2019 3:46:25 PM-----------------
-------------------------------------------------------------------------------------



Log Written Date: 8/13/2019 3:46:25 PM

Error Line No : ine 379

Error Message: SqlException

Exception Type: System.Data.SqlClient.SqlException

Error Location : The INSERT statement conflicted with the FOREIGN KEY constraint "FK_DebtAddress_Debt". The conflict occurred in database "CRFSDBqa", table "dbo.Debt", column 'DebtId'.
The statement has been terminated.

 Error Page Url: http://localhost/CRFView/WorkCard/SaveAddress

User Host IP: 


--------------------------------*End*------------------------------------------



-----------Exception Details on  8/13/2019 3:47:57 PM-----------------
-------------------------------------------------------------------------------------



Log Written Date: 8/13/2019 3:47:57 PM

Error Line No : ine 379

Error Message: SqlException

Exception Type: System.Data.SqlClient.SqlException

Error Location : The INSERT statement conflicted with the FOREIGN KEY constraint "FK_DebtAddress_Debt". The conflict occurred in database "CRFSDBqa", table "dbo.Debt", column 'DebtId'.
The statement has been terminated.

 Error Page Url: http://localhost/CRFView/WorkCard/SaveAddress

User Host IP: 


--------------------------------*End*------------------------------------------



-----------Exception Details on  8/13/2019 3:50:48 PM-----------------
-------------------------------------------------------------------------------------



Log Written Date: 8/13/2019 3:50:48 PM

Error Line No : ine 379

Error Message: SqlException

Exception Type: System.Data.SqlClient.SqlException

Error Location : The INSERT statement conflicted with the FOREIGN KEY constraint "FK_DebtAddress_Debt". The conflict occurred in database "CRFSDBqa", table "dbo.Debt", column 'DebtId'.
The statement has been terminated.

 Error Page Url: http://localhost/CRFView/WorkCard/SaveAddress

User Host IP: 


--------------------------------*End*------------------------------------------



-----------Exception Details on  8/13/2019 4:27:45 PM-----------------
-------------------------------------------------------------------------------------



Log Written Date: 8/13/2019 4:27:45 PM

Error Line No : ine 379

Error Message: SqlException

Exception Type: System.Data.SqlClient.SqlException

Error Location : The INSERT statement conflicted with the FOREIGN KEY constraint "FK_DebtAddress_Debt". The conflict occurred in database "CRFSDBqa", table "dbo.Debt", column 'DebtId'.
The statement has been terminated.

 Error Page Url: http://localhost/CRFView/WorkCard/SaveAddress

User Host IP: 


--------------------------------*End*------------------------------------------



